<svg id="instagram" xmlns="http://www.w3.org/2000/svg" viewBox="0 0 15 15">
  <defs>
    <style>
      .cls-1 {
        fill: #0071bb;
      }
    </style>
  </defs>
  <g id="Group_131" data-name="Group 131">
    <g id="Group_130" data-name="Group 130">
      <path id="Path_2086" data-name="Path 2086" class="cls-1" d="M10.313,0H4.688A4.688,4.688,0,0,0,0,4.688v5.625A4.688,4.688,0,0,0,4.688,15h5.625A4.688,4.688,0,0,0,15,10.313V4.688A4.688,4.688,0,0,0,10.313,0Zm3.281,10.313a3.285,3.285,0,0,1-3.281,3.281H4.688a3.285,3.285,0,0,1-3.281-3.281V4.688A3.285,3.285,0,0,1,4.688,1.406h5.625a3.285,3.285,0,0,1,3.281,3.281Z"/>
    </g>
  </g>
  <g id="Group_133" data-name="Group 133" transform="translate(3.75 3.75)">
    <g id="Group_132" data-name="Group 132">
      <path id="Path_2087" data-name="Path 2087" class="cls-1" d="M131.75,128a3.75,3.75,0,1,0,3.75,3.75A3.75,3.75,0,0,0,131.75,128Zm0,6.094a2.344,2.344,0,1,1,2.344-2.344A2.347,2.347,0,0,1,131.75,134.094Z" transform="translate(-128 -128)"/>
    </g>
  </g>
  <g id="Group_135" data-name="Group 135" transform="translate(11.032 2.969)">
    <g id="Group_134" data-name="Group 134">
      <circle id="Ellipse_1" data-name="Ellipse 1" class="cls-1" cx="0.5" cy="0.5" r="0.5"/>
    </g>
  </g>
</svg>
